Name,Age,Company,Building_Code,Phone_Number,Address
Shanti Desai,95,Patel Corp,355,447.194.3778,"988 Bhattacharya Ramp, New Delhi, CH 655166"
Mrs. Akshainie Pandey,55,Arora-Kaur,24714,420.147.4528,"Suite 644 61916 Gemini Port, Bengaluru, SK 865581"
Anjushree Namboothiri,75,"Guneta, Nehru and Adiga",91564,(512) 510-7265,"Suite 677 428 Guha Way, Mumbai, MN 609487"
Mohinder Ganaka PhD,21,Banerjee Group,093,(873) 760-7485,"1531 Mandaakin Place, Visakhapatnam, AN 387598"
Bhuvaneshwar Patel,20,Somayaji-Achari,097,1-829-289-6597,"Apt. 531 297 Lakshminath Club, Hyderabad, PY 803918"
Krishnadas Tandon,96,Joshi-Kapoor,7665,(042) 127-9048,"Apt. 015 896 Guha Pine, Visakhapatnam, DL 919527"
Mrs. Preity Talwar,47,Ahluwalia-Panicker,819,(492) 702-5873,"Suite 689 223 Iyer Shoal, Bengaluru, JK 491162"
Mani Dhawan,44,Mehra Corp,807,031.557.3694,"397 Ahluwalia Rue, Hyderabad, AP 400443"
Bhaanumati Chattopadhyay,54,Achari Group,57574,074-111-9978,"84201 Ahalya Circle, Thiruvananthapuram, DL 487695"
Dinkar Khatri,60,Desai-Khatri,89980,1-468-521-0334,"Apt. 092 9793 Banerjee Glens, Kolkata, HP 319219"
Ekadant Talwar,69,Nayar-Dwivedi,7331,(187) 795-0784,"25129 Jitendra Heights, Chennai, DL 069206"
