Name,Age,Company,Building_Code,Phone_Number,Address
Chandrani Mishra Sr.,61,"Desai, Dwivedi and Reddy",281,126.177.6044,"917 Chattopadhyay Ville, Chennai, HP 504137"
Deeptimayee Pillai,64,Jha and Sons,9167,(437) 976-1427,"710 Divakar Crossing, Hyderabad, KA 237287"
Lakshman Varman,30,Kaur-Guneta,676,(721) 415-6198,"Suite 651 973 Somayaji Causeway, Mumbai, CG 263305"
Chandraayan Somayaji,36,"Arora, Ahluwalia and Gill",2826,1-307-391-6332,"86088 Dhanesh Drive, Visakhapatnam, JS 106948"
Sarisha Kapoor,46,Gowda Ltd,067,1-824-142-5082,"Suite 833 4785 Rana Rest, Thiruvananthapuram, SK 981707"
Abhirath Pillai,20,"Mahajan, Kocchar and Shah",91958,1-265-684-6434,"61205 Ghanashyam Centers, Mumbai, MZ 225323"
Miss Goswamee Bharadwaj,20,Iyengar Ltd,009,1-160-828-9670,"36950 Vasudeva Forest, New Delhi, CG 345174"
Puneet Khanna,34,Nayar Corp,65520,297-829-3051,"209 Menaka Walks, Chennai, DL 023142"
Dharitri Khatri,59,Pilla-Ahuja,6178,(048) 992-4102,"Apt. 268 49406 Varma Fields, Mumbai, CG 930417"
Miss Gurdev Trivedi,83,Shah-Trivedi,40984,832-743-1080,"336 Sinha Gardens, Hyderabad, KL 437718"
Anasuya Khan,19,Namboothiri-Khatri,611,(529) 576-5642,"Apt. 866 710 Sinha Court, Hyderabad, NL 408385"
