Name,Age,Company,Building_Code,Phone_Number,Address
Anuraag Adiga,58,"Dwivedi, Rana and Nair",64581,628.298.1608,"Suite 196 384 Tagore Meadow, Bengaluru, WB 642034"
Uttam Abbott,63,"Chattopadhyay, Banerjee and Iyer",0932,089.737.8980,"078 Bhattacharya Burgs, Thiruvananthapuram, KL 327724"
Narinder Nair,21,"Joshi, Varman and Bhat",02116,495-227-7018,"Apt. 768 39652 Menka Bypass, Mumbai, JK 990272"
Purushottam Guneta,62,Trivedi-Kapoor,5899,(632) 431-9996,"22513 Kakkar Square, Kolkata, CG 069671"
Diptendu Asan,87,"Deshpande, Pilla and Jha",8074,206-040-9122,"Suite 436 772 Rajendra Wells, Mumbai, GJ 860293"
Hari Verma,19,Dubashi-Prajapat,7406,(133) 029-8144,"62784 Gopaal Run, Thiruvananthapuram, MP 206818"
Dhanapati Varman,57,Kaul-Dutta,9352,501.787.8929,"Suite 318 27464 Eshana Falls, Thiruvananthapuram, GA 499042"
Miss Agastya Jha,60,"Arora, Chattopadhyay and Kaul",86854,1-395-014-3222,"Apt. 192 233 Bhramar Mountain, Mumbai, PB 352694"
Mrs. Vaishno Iyer,72,"Banerjee, Bhattacharya and Dubashi",2953,(053) 890-1827,"0940 Balachandra Junction, Bengaluru, RJ 480476"
Achalesvara Kakkar DVM,22,"Trivedi, Mehra and Malik",794,339-722-0791,"9316 Manjusha Extensions, Kolkata, RJ 035201"
Deepankar Butt,47,Adiga Brothers,10485,817-244-9156,"Apt. 280 8429 Desai Street, Hyderabad, UK 858159"
