Name,Age,Company,Building_Code,Phone_Number,Address
Jagmeet Naik,21,"Patel, Iyengar and Nayar",344,413-442-2696,"Apt. 041 6026 Gill View, Kolkata, SK 230818"
Ms. Amaranaath Bandopadhyay,56,"Desai, Kapoor and Kapoor",26919,686-984-3783,"Apt. 437 237 Acaryatanaya Route, Visakhapatnam, PY 926683"
Vidya Panicker,78,Mishra and Sons,3695,(112) 081-8847,"Apt. 307 337 Deeptendu Plains, Thiruvananthapuram, MP 394835"
Vaishvi Varrier,90,Pandey-Gill,9834,(396) 928-0785,"163 Ganaka Oval, Mumbai, HP 519793"
Dayamayee Varrier MD,61,"Jain, Patel and Joshi",22550,864-995-8811,"3485 Chandni Summit, Kolkata, PY 174243"
Sujata Joshi,33,Ganaka Group,22609,507-581-0552,"Apt. 891 734 Butt Ports, Chennai, GJ 369407"
Gautam Bandopadhyay,89,"Patil, Pillai and Prajapat",4131,748.134.3848,"Apt. 774 60531 Mahesh Glens, Bengaluru, MN 432398"
Devagya Shukla,61,Nayar Corp,7150,(343) 773-1593,"Apt. 045 52511 Nambeesan Glen, Bengaluru, CG 952767"
Agneya Chopra,96,Achari Group,3374,(602) 902-7203,"Apt. 749 70263 Jitender Loaf, Bengaluru, JK 255914"
Chidaatma Dutta,70,"Acharya, Mishra and Prajapat",70662,043-498-8690,"Apt. 713 9596 Patel Camp, Visakhapatnam, AR 243169"
Brahmanandam Menon,63,Marar-Embranthiri,311,139-402-7941,"278 Patel Pass, Hyderabad, NL 604361"
