Name,Age,Company,Building_Code,Phone_Number,Address
Anuja Joshi,75,Pandey Ltd,9481,(610) 138-4786,"1211 Talwar Landing, Mumbai, JK 848698"
Aadrika Verma,29,Dutta-Johar,3656,(914) 727-2892,"3828 Bhattathiri Springs, New Delhi, TN 944420"
Dr. Divaakar Embranthiri,82,Kapoor Ltd,8310,(335) 200-2001,"315 Daksha Mews, New Delhi, TR 884038"
Anandamayi Arora,36,Bharadwaj-Butt,4888,226-612-2753,"Suite 747 33605 Smita Circle, Chennai, GA 231304"
Archan Varman,51,Joshi-Shukla,441,1-788-263-7638,"1871 Varrier Walk, Mumbai, GJ 825669"
Dharitri Kakkar,60,Iyer-Ganaka,9103,1-973-909-5378,"0728 Gandhi Pine, Chennai, MH 705556"
Aasa Marar,58,Ahluwalia Brothers,301,508.212.8763,"Suite 141 4129 Reddy Gardens, Mumbai, CG 418626"
Mr. Bilva Kaul,87,Iyer Limited,375,1-242-747-8859,"Suite 712 604 Gill Green, Mumbai, MZ 840183"
Kannen Butt,47,Rana Brothers,115,873-314-4219,"Suite 774 316 Dhyaneshwar Springs, New Delhi, AS 702487"
Som Guha,84,Bharadwaj-Bhattathiri,1559,967.822.4072,"57165 Suma Trafficway, Chennai, PY 654520"
Meena Mehrotra II,62,Mehrotra-Naik,7550,093-081-9027,"443 Mishra Groves, Thiruvananthapuram, TR 356708"
