Name,Age,Company,Building_Code,Phone_Number,Address
Ms. Vishwamitra Sharma,92,Iyengar-Khanna,3940,000.363.9548,"Apt. 267 8961 Bhaswar River, Bengaluru, AP 002998"
Miss Omana Reddy,20,Guneta and Sons,014,021.588.8988,"Suite 268 20203 Sharma Lodge, Visakhapatnam, GJ 072468"
Hiranmay Varma,80,Gill-Mishra,7571,402.587.1727,"Apt. 388 24899 Kapoor Ranch, New Delhi, TR 914949"
Amodini Namboothiri Sr.,41,Mukhopadhyay Brothers,537,1-516-315-5864,"Apt. 211 8405 Dev Alley, New Delhi, AR 502664"
Dr. Bhargavi Varman,26,Mishra Corp,655,123.351.1319,"61313 Tagore Ways, Mumbai, MH 010555"
Dr. Chandran Kakkar,86,"Embranthiri, Dubashi and Kaur",37104,1-067-226-5517,"Suite 521 246 Gandhi Crescent, Hyderabad, MZ 484077"
Miss Aagam Bandopadhyay,82,"Dubashi, Acharya and Sethi",5894,(213) 718-8517,"Apt. 496 8164 Ujjwal Mountains, Chennai, PB 906336"
Saroja Guha,51,Patel Ltd,67922,(509) 923-8678,"5689 Bhagwanti Pines, Hyderabad, SK 123747"
Arjun Joshi,57,Sinha Limited,6183,259-442-1126,"845 Bhat Turnpike, Bengaluru, KL 927075"
Tej Ahluwalia,53,Sethi Limited,6930,790.579.7483,"0331 Varman Village, Hyderabad, GA 001788"
Sweta Achari,97,"Bandopadhyay, Mahajan and Ganaka",373,140.300.6050,"Suite 554 78045 Sarada Isle, Thiruvananthapuram, TN 896582"
