Name,Age,Company,Building_Code,Phone_Number,Address
Chakradhar Varma,48,Ahluwalia-Chattopadhyay,3732,862-062-7794,"1994 Digambara Brook, Hyderabad, SK 888399"
Malti Pillai,91,Kocchar-Bharadwaj,750,646-512-3893,"0030 Kocchar Stravenue, Hyderabad, ML 182487"
Maheswar Panicker Jr.,87,"Patel, Kaniyar and Desai",5720,031-163-1421,"Apt. 691 899 Buddhana Island, Bengaluru, ML 607511"
Manoj Saini,68,Sinha-Mehra,5311,1-238-197-1544,"246 Pandey Trail, Chennai, TR 529175"
Shankar Pothuvaal,71,Pothuvaal-Nehru,27592,043.297.9573,"11698 Singh Pike, Bengaluru, HR 465310"
Mrs. Smita Jha,65,"Chattopadhyay, Sethi and Ahluwalia",57740,942-798-8528,"9160 Jaya Mews, Kolkata, TR 672770"
Abhaidev Butt,57,Desai-Gupta,7153,(205) 606-1572,"2500 Mayoor Junctions, Visakhapatnam, MZ 194082"
Chidambaram Kapoor,68,Somayaji-Shah,23961,1-587-947-2770,"Apt. 551 8367 Eshita Throughway, Visakhapatnam, DD 653300"
Udit Chattopadhyay,40,Varma-Patil,783,991-972-6430,"69159 Dutta Views, Chennai, UK 521740"
Arya Iyengar,54,"Naik, Deshpande and Varman",505,1-663-740-5558,"140 Mohan Harbors, Hyderabad, AN 140470"
Ahilya Shukla,50,Chattopadhyay-Varrier,30404,(252) 367-8911,"9148 Suma Courts, New Delhi, AR 035913"
