Name,Age,Company,Building_Code,Phone_Number,Address
Omana Bhat V,42,Rana-Arora,9645,277.334.1510,"Apt. 130 12247 Gandhi Summit, Bengaluru, UK 802020"
Manoj Joshi Jr.,60,Gupta Ltd,091,073.030.1370,"Apt. 842 71055 Bhudeva Inlet, Kolkata, CH 139545"
Devesh Khatri III,49,Dubashi-Somayaji,5302,567.312.4205,"6534 Nehru Spurs, Hyderabad, HP 186058"
Mr. Sushma Mehra,98,Bhattacharya-Gill,357,407-263-1455,"Suite 758 20604 Swapnil Port, New Delhi, KL 015796"
Miss Gudakesa Ahluwalia,80,Achari Corp,1763,770.763.8266,"1877 Sunita Station, Visakhapatnam, LD 737497"
Leela Devar I,57,Ahuja-Khanna,59832,(621) 552-6258,"Suite 007 7291 Chandramani Trace, Bengaluru, MH 310293"
Narinder Iyengar IV,42,Ganaka-Verma,098,508.076.6322,"Apt. 299 1540 Pandey Bridge, Bengaluru, DD 444972"
Bhaumik Nair,62,"Iyer, Gupta and Patel",2727,1-083-844-5312,"205 Nair Flat, New Delhi, SK 496267"
Adhiraj Gandhi,82,"Bhat, Somayaji and Acharya",6444,585.701.6817,"Apt. 590 7223 Verma Manor, New Delhi, CG 442923"
Bhishma Panicker,31,"Desai, Pothuvaal and Namboothiri",0070,844.469.2355,"99476 Aadidev Street, New Delhi, CH 788350"
Bilva Pandey,50,Deshpande-Banerjee,415,(530) 694-0524,"774 Joshi Corners, Bengaluru, DN 015211"
