Name,Age,Company,Building_Code,Phone_Number,Address
Dr. Pramila Chattopadhyay,29,"Shukla, Chaturvedi and Kaur",06325,858.024.9330,"Apt. 451 5626 Niranjan Square, Hyderabad, KA 306265"
Aanjaneya Shukla,91,Saini-Patil,66183,373-539-8260,"Apt. 179 339 Gowda Fall, Visakhapatnam, DL 851507"
Vaishnavi Dutta,30,"Singh, Marar and Chaturvedi",33560,460-830-7935,"816 Sumitra Shore, Thiruvananthapuram, JS 172889"
Chapal Dwivedi,47,Butt Pvt Ltd,097,884.230.1501,"Suite 786 65194 Kanishka Islands, Thiruvananthapuram, MN 851068"
Amrit Bhattacharya,94,"Panicker, Agarwal and Jha",16407,1-018-522-8299,"34527 Geeta Keys, Chennai, SK 652995"
Enakshi Dutta V,74,"Bharadwaj, Bhattacharya and Khatri",548,032-306-2751,"34052 Rana Turnpike, New Delhi, MH 140351"
Anand Swarup Patil,29,Chaturvedi Brothers,54923,807.732.4128,"4515 Kakkar Canyon, New Delhi, TN 862867"
Amrit Dubashi III,46,"Prajapat, Trivedi and Nayar",7261,1-126-645-7002,"169 Nehru Crossroad, New Delhi, AS 158958"
Bala Patil,26,"Singh, Khatri and Pilla",2000,1-243-055-6964,"29827 Goswami Rapids, Bengaluru, UP 024150"
Achyut Nayar,66,Chaturvedi-Shah,49330,1-746-488-0834,"Apt. 928 9840 Shashi Glen, Kolkata, CH 013045"
Ambar Kaur I,89,Arora Limited,25751,1-724-262-4405,"Suite 696 5346 Deevakar Village, Chennai, NL 911636"
